318340630
()
759268266
()
3026949591
()
3070825665
()
1206100314
()
1416394740
()
382662894
()
162786962
()
1455959879
()
675676562
()
()
()
286155501
()
311462441
()
268895775
()
3370064843
()
1130897051
()
1409455882
()
4464853513
()
194753771
()
4496584234
()
200810183
()
338802006
()
1100746672
()
()
3004491037
()
301464832
()
4630873926
()
711070610
()
1033051807
()
880991260
()
186477628
()
773444842
()
1333709291
()
4331479974
()
718240729
()
926739972
()
740057065
()
169737640
()
633651013
()
780182510
()
669921825
()
()
227269597
()
()
152673615
()
2897215742
()
147463613
()
()
()
148813034
()
3078332745
()
170737483
()
833545545
()
2884499782
()
170620606
()
4195831853
()
324210335
()
318952274
()
664424928
()
193858518
()
812244715
()
1182603222
()
723748493
()
346045898
()
4244566569
()
()
1403471537
()
271986462
()
760154368
()
185751687
()
()
332313303
()
962015615
()
804468714
()
1296150978
()
4053052924
()
186679495
()
342532374
()
161811547
()
718110583
()
686813570
()
185198450
()
3221169081
()
158509255
()
329879895
()
2871493254
()
1338883597
()
()
1144654949
()
197934554
()
998105442
()
3883232559
()
1093838372
()
4698799684
()
215856073
()
154751197
()
187078383
()
1229683871
()
827114970
()
1097376679
()
1029787610
()
()
192442698
()
1296838524
()
1078324797
()
357029327
()
4424476685
()
159964626
()
746121453
()
1330085816
()
316749080
()
()
790010764
()
218585658
()
2825464093
()
1426198350
()
1350816520
()
1310556972
()
1350334128
()
183162350
()
321978015
()
1274708605
()
174562239
()
737105082
()
3020343187
()
203809962
()
2986717030
()
3035650104
()
4145577226
()
()
4251930842
()
4378670681
()
4077131936
()
()
369609613
()
781847787
()
1213727736
()
3120853994
()
133022049
()
708754968
()
671053820
()
1391409600
()
1272462441
()
183544569
()
3045552969
()
2937089549
()
331356372
()
194707398
()
1177327150
()
662438007
()
658893499
()
723504418
()
4518550466
()
()
790657853
()
183478218
()
1341419538
()
()
764236451
()
170252793
()
793804148
()
165903112
()
1033049657
()
1267206467
()
175797482
()
168834352
()
2876598700
()
551880349
()
769186338
()
()
()
1040999891
()
1130696659
()
711779641
()
()
602734896
()
309950163
()
216573943
()
392962997
()
1111326380
()
632728147
()
4190802757
()
191499245
()
180527568
()
829959312
()
715740854
()
3086912314
()
678651623
()
377206573
()
166562381
()
958315849
()
4426358668
()
183311898
()
1048420119
()
3057667789
()
165404851
()
963887740
()
1038634230
()
641277951
()
3115383452
()
666596071
()
195600175
()
638107862
()
281070803
()
1133240547
()
1156178159
()
771760539
()
178400315
()
1224831747
()
3076958260
()
1328278630
()
291544622
()
2640575516
()
1006048679
()
3024804236
()
795319671
()
()
()
4310797764
()
371357974
()
4342665465
()
342364719
()
2879064923
()
1162943150
()
2661733905
()
()
786262550
()
1549275275
()
396799085
()
343647736
()
1426628343
()
317489461
()
338558643
()
1021916158
()
360489703
()
()
334304671
()
()
339290405
()
285079550
()
179935658
()
1326747136
()
1299640904
()
1413865268
()
352144214
()
155227269
()
800875813
()
1069693243
()
2482623755
()
170511625
()
1353655516
()
1384901142
()
338372245
()
()
220213729
()
181852224
()
317672527
()
180544756
()
1187998763
()
864466643
()
829915278
()
838463101
()
()
158579727
()
()
1374173152
()
668372625
()
835646394
()
3016072527
()
1460554406
()
4324138101
()
4570698613
()
820003497
()
3108281654
()
313404001
()
189574604
()
180809656
()
294305110
()
1139794405
()
()
1006429411
()
2843229897
()
653202087
()
3832349562
()
4600305058
()
1442261361
()
()
1458024440
()
1047219502
()
3117324935
()
1214109911
()
()
1288333898
()
343235866
()
818716222
()
759438141
()
323528750
()
1483844191
()
()
