2185529247
()
1604752702
()
1603203470
()
2095545659
()
1687270047
()
1646887611
()
1626388850
()
2113344264
()
1728373372
()
1620075729
()
1586585633
()
1898272664
()
1718559969
()
2078961254
()
1546723507
()
2102326743
()
1499356400
()
1610098799
()
1590956104
()
1577062639
()
1709366696
()
2121526023
()
1825742011
()
2118932081
()
1439565064
()
2055719015
()
1874731613
()
1801201653
()
1528628792
()
1526252678
()
2105743752
()
2145916418
()
1580208257
()
2110855816
()
1863669199
()
1811939066
()
1505344766
()
1540035394
()
1877812656
()
1672379604
()
1839692952
()
1603302786
()
1515874448
()
1551441471
()
1544668706
()
2184969268
()
1624413225
()
2140202699
()
2114806873
()
1751210740
()
1490168629
()
1566023081
()
1684251742
()
1611798677
()
2037673714
()
1493596491
()
1551134670
()
1621217737
()
2140593537
()
2077970614
()
1845375549
()
1983134819
()
1533871977
()
1680263524
()
2092082698
()
1982772360
()
1708289545
()
1815960537
()
2158520722
()
1684388460
()
2157761572
()
1506781898
()
1836002974
()
1747618459
()
2218497385
()
1766595919
()
1555157179
()
1705680143
()
1606350581
()
1823344168
()
2119882869
()
1598459352
()
1478785325
()
1552072826
()
1529694710
()
1546081061
()
1675362497
()
1647576831
()
1755910946
()
1541654271
()
1549785439
()
1537137193
()
2183219248
()
1637820493
()
1779769229
()
1538342575
()
1601327264
()
2159699064
()
1473298326
()
1620711957
()
2124853549
()
1524683595
()
2121412069
()
1866490779
()
2022020004
()
1701699215
()
1759926155
()
1835929310
()
2062510575
()
1679156578
()
1653269806
()
1779333247
()
1492337234
()
1624984305
()
2013008377
()
2235293251
()
1455964974
()
1570631177
()
1608916324
()
1906971119
()
1580543502
()
1615978845
()
1929915792
()
2053996427
()
1805998709
()
1632314362
()
1781425086
()
1588874106
()
2092654162
()
1874957054
()
2131168265
()
1623555051
()
1542697395
()
2088379260
()
1654662547
()
1534717819
()
1521210523
()
1726152982
()
1721537360
()
1547884867
()
1811111681
()
1630028009
()
1759968735
()
1769971850
()
1536491026
()
1972443219
()
1561612488
()
1517592304
()
1574984048
()
2033630228
()
2196203140
()
1503269913
()
1867612868
()
1566004084
()
1537547251
()
1658860690
()
1533637966
()
1505768120
()
1585132246
()
1481325381
()
1749189605
()
1588013861
()
1826564251
()
1539949498
()
1741580558
()
1509518478
()
2029365743
()
1611012277
()
1529357449
()
1573525996
()
1608750633
()
2009174440
()
1631766230
()
1464614472
()
1717729147
()
1486944849
()
1546081465
()
1970174990
()
1841381385
()
1615694860
()
1577495098
()
1543398047
()
2088019440
()
2109985317
()
1631544952
()
1650666353
()
1566908741
()
1772491325
()
1888629658
()
1644941861
()
2061941318
()
2087589367
()
1719572685
()
1530219721
()
2040307761
()
1811633182
()
1645957031
()
1461953267
()
1663826407
()
1494625987
()
1515249079
()
1592491304
()
1613646471
()
1736498671
()
1731340136
()
2086723208
()
1613698138
()
2195549376
()
1619904434
()
1616046928
()
1912932080
()
1484184630
()
1576873143
()
1573894757
()
1647710290
()
1580035405
()
1611048877
()
1606571431
()
1499331229
()
2158205361
()
1793706051
()
2054185361
()
1626555762
()
1582694407
()
1867758557
()
1751981904
()
2157967023
()
1835674470
()
1535155612
()
1688178216
()
1617748313
()
1586842763
()
1587283609
()
1884611420
()
2172264865
()
1627246497
()
2112323430
()
1746241726
()
1757335939
()
2121737193
()
1587167050
()
2161379912
()
2069265125
()
1601710244
()
2089682483
()
1765189560
()
1975664884
()
1517640084
()
1863786467
()
1716897243
()
2171528838
()
1433243765
()
1557577902
()
1787981566
()
1544815562
()
2214896856
()
1820475117
()
2045922474
()
1539982145
()
1551916813
()
1874313146
()
2116106385
()
2069663676
()
1565715582
()
2142665752
()
1898735077
()
1938778652
()
1605045319
()
1521104830
()
1542719237
()
1600077701
()
2138954538
()
1646814116
()
1597353184
()
1771692383
()
2088261638
()
1604435363
()
1819666962
()
1788904900
()
1794444274
()
1775543048
()
1544714672
()
1666348744
()
1593542269
()
1882998370
()
1561046464
()
1610693363
()
1576215763
()
1808931922
()
2148512035
()
1563553799
()
1602843459
()
1616682055
()
2104989759
()
2131995500
()
2122165740
()
1854674276
()
1630649870
()
1627243032
()
2246697912
()
