2124
3448
4256
()
1992
3516
4456
()
2608
3736
4132
()
2208
3004
3964
()
2612
3420
3776
()
1568
3624
3796
()
2632
3772
5028
()
2620
3236
3564
()
1844
3044
3556
()
3044
4384
()
2028
3776
4168
()
1920
3744
4368
()
2000
2896
3876
()
2676
3624
4096
()
2036
3664
3812
()
1356
3240
3648
()
1548
3392
4636
()
2200
3944
4848
()
2444
3276
4500
()
2704
3660
3172
()
1872
3680
4256
()
1664
3292
4092
()
2344
3224
4000
()
2108
3620
4528
()
1728
3780
5208
()
2564
3728
4204
()
2428
3860
4924
()
2072
3328
4480
()
1572
3368
4960
()
1968
3540
4128
()
1828
3512
5372
()
1552
3716
3604
()
1964
3504
4500
()
2552
4120
4496
()
2364
3792
3360
()
2368
4136
4520
()
2544
3496
4872
()
1612
3848
4112
()
2052
3532
4460
()
2268
3516
3048
()
2152
3176
4260
()
1672
5004
4960
()
2424
3668
4356
()
2472
2956
4740
()
1832
3920
4320
()
1276
3516
4324
()
2504
2916
3776
()
2332
3040
4056
()
2180
3316
3920
()
1916
3508
4964
()
2332
3844
5420
()
1816
2832
4388
()
2104
3648
3984
()
1692
3148
3580
()
2484
3092
4284
()
2164
3392
3588
()
1544
3844
4400
()
1752
3348
3836
()
2288
4392
4000
()
2040
3116
3892
()
2148
3952
4736
()
2432
3288
4272
()
2036
3564
4504
()
2460
3900
4624
()
2204
3596
4076
()
2032
3628
3572
()
2844
3520
5120
()
2172
3664
4980
()
2336
4024
5188
()
2544
3716
4852
()
2088
3684
4224
()
1476
2924
4972
()
2624
4124
3672
()
2412
3748
4404
()
2628
4008
5148
()
1604
3560
5136
()
2272
3632
4188
()
1944
3968
4924
()
2388
3452
4656
()
2888
3616
4420
()
1876
3544
4232
()
1832
3980
5036
()
1936
3444
3812
()
2480
3116
3716
()
2360
3684
4424
()
1812
4120
3944
()
1792
3580
4512
()
2704
4040
5100
()
1784
2944
3972
()
1476
4124
5080
()
2948
4132
3980
()
2616
3664
4048
()
2376
3912
4284
()
2088
3860
4520
()
2312
3524
4328
()
2872
3052
4388
()
1480
4376
3672
()
3100
3668
4780
()
2044
3448
4560
()
2012
3620
4260
()
1668
3036
4388
()
2336
3148
4708
()
2336
3676
4440
()
2024
4184
5844
()
1720
3400
4836
()
1624
4876
5024
()
2056
3800
4108
()
1812
3612
4752
()
2352
3904
4308
()
2880
3856
4356
()
1800
3012
4692
()
1524
3384
5008
()
720
3636
4672
()
2000
3460
3868
()
2252
3580
3620
()
1448
3904
4344
()
2376
3740
4344
()
2272
3436
4168
()
1608
3428
4896
()
2748
3864
4660
()
2272
2708
3728
()
2088
3836
4632
()
2388
3484
4004
()
2844
3160
3908
()
1384
3032
4772
()
2148
3416
3828
()
1548
3856
4728
()
2332
4536
3908
()
2648
3520
3188
()
1352
3216
4000
()
3024
4380
4744
()
1952
3328
3868
()
1804
3608
4188
()
1688
3992
4796
()
2488
3012
4332
()
2276
3568
4380
()
2064
4196
4000
()
1808
4092
5012
()
2220
3252
4836
()
2784
3376
3756
()
2076
3252
3284
()
2624
3232
4412
()
2792
3796
4436
()
2764
3028
3916
()
1664
3096
5208
()
1908
4136
4416
()
1660
3540
4816
()
2448
3208
4488
()
1648
3496
4436
()
1848
3332
3920
()
2828
3796
3940
()
2388
3844
4704
()
2096
4176
4232
()
2604
3168
4660
()
2080
4360
4752
()
1964
2720
4028
()
2376
3736
3896
()
1340
4084
6212
()
2400
3924
4436
()
2112
3624
4808
()
2340
3552
3916
()
1464
3768
4892
()
1948
3440
5252
()
1844
3244
4468
()
2240
3648
4816
()
2020
3588
5152
()
1912
3104
4588
()
2528
4356
3716
()
2464
3328
4212
()
2232
3636
4428
()
2452
3740
4172
()
2496
3196
3948
()
2076
3740
4740
()
2012
3600
5324
()
2560
4208
4716
()
1852
3832
4780
()
1436
2976
4456
()
2292
3496
4168
()
1848
3976
3948
()
2384
3772
3640
()
1816
3776
5140
()
2216
3240
4076
()
2896
3404
4780
()
1464
3048
4720
()
1864
3628
3384
()
1916
3192
4672
()
2440
3268
4064
()
1772
3336
4648
()
2012
3184
3152
()
2544
3292
4620
()
1752
3372
5040
()
2108
4092
5144
()
2292
3928
3932
()
1220
3388
5304
()
2056
3764
4792
()
2748
3116
5296
()
2644
3372
4796
()
2420
3392
4500
()
2848
3696
4632
()
1720
3892
3620
()
2988
3316
3816
()
1204
3116
4732
()
1812
4100
4584
()
2776
3584
5156
()
2004
3360
4076
()
1532
3536
4084
()
2784
3124
3836
()
2636
3696
4584
()
1872
2876
4520
()
2440
3040
3704
()
2356
3756
4712
()
2344
4120
4584
()
2736
3904
4908
()
2084
3580
4488
()
2596
4116
4500
()
2612
3600
4836
()
2804
3488
4068
()
1984
3760
3664
()
1900
4280
4676
()
2040
3288
4088
()
1848
3996
4024
()
2080
4556
4480
()
2168
3412
4444
()
2736
3812
5344
()
2004
3724
4148
()
1564
3308
4868
()
2604
4232
4336
()
2072
3824
4624
()
2764
3956
4788
()
2996
3368
3740
()
2196
3632
4888
()
2624
2840
3664
()
2352
3300
4700
()
1808
3604
4196
()
1292
3744
4612
()
2108
3432
4488
()
2604
3604
4864
()
1996
3876
4072
()
2268
3372
3380
()
2252
3724
4980
()
1592
3640
4304
()
2644
3892
4636
()
1904
3344
4968
()
2736
2864
4476
()
1476
2896
4148
()
2732
3172
5096
()
2584
3796
4252
()
1812
3184
3348
()
2716
3684
4292
()
2264
3328
4648
()
2252
4008
3596
()
1704
3972
4168
()
2124
3480
3808
()
1628
4064
5100
()
1776
3624
3884
()
2132
3508
5480
()
2080
3852
4556
()
2004
3420
4400
()
2784
3996
5032
()
2172
3436
4488
()
2512
2904
4652
()
1868
3584
4332
()
1452
4500
4312
()
1772
3088
3944
()
2088
2840
4348
()
2836
3764
5100
()
2456
4008
5516
()
2656
3784
4356
()
2308
2868
5308
()
2712
3240
5068
()
2672
4472
4552
()
2692
3088
4384
()
1940
3908
4196
()
2144
3272
4496
()
2160
3840
4680
()
2372
4424
5020
()
2220
3092
3968
()
1924
3576
3952
()
1896
3028
4220
()
2340
3116
4196
()
2820
4104
4560
()
1624
3444
4744
()
1456
3596
5056
()
2996
3788
4452
()
1868
3640
4200
()
2556
3476
4520
()
2116
4092
4672
()
1960
3784
5420
()
1880
3048
3556
()
2304
3784
3516
()
2180
3616
5264
()
1148
3784
4480
()
1684
3584
4948
()
2412
3524
4008
()
2164
4104
4976
()
2340
2948
4724
()
2444
3988
5356
()
1896
3436
4564
()
2184
3200
4572
()
2088
3540
4124
()
