1384748665
1382801851
1907677215
1580529940
1392508687
1846559935
1432221416
1551541254
1405018154
1855837056
1496519112
1384383965
1686957563
1793187915
1857692309
1389768701
1437063489
1323263953
1422242966
1369233584
1925464033
1537405333
1477518979
1563480961
1496996652
1876630125
1393805955
1400927386
1648812231
1887809213
1390409424
1774795759
1619146129
1925285431
1812309771
1883432231
1638411269
1464026149
1632963827
1372642175
1629364916
1342038573
1565878603
1728834228
1801988559
1946309422
1454752987
1904019065
1408288929
1422703851
1838931626
1872377679
1368324566
1927424715
1612594190
1544683925
1648387178
1872503463
1434261714
1850996553
1327564748
1477324349
1640284868
1382066822
1409833876
1609401594
1419365882
1382321025
1435448481
1705342939
1878712570
1634293859
1375184931
1571091936
1360588279
1551024978
1883593503
1649807375
1640016220
1860945095
1376747199
1631632780
1828806513
1587740834
1432242715
1892752021
1830208262
1463185742
1497248215
1654067989
1671291550
1402228468
1917429102
1609972532
1616762614
1882891157
1431546462
1367255092
1467160394
1333918660
1938744993
1641802118
1948290873
1423219991
1655679543
1984415855
1399077061
1620237007
1383102161
1558053062
1594911691
1862214832
1321548960
1656089434
1530221686
1789986411
1430523248
1919563365
1344299617
1854776412
1441426494
1544027822
1448537197
1638805156
1459258384
1426867102
1488550035
1410842818
1827202794
1889393366
1667752429
1882173168
1463563607
1447273004
1446750765
1898764551
1849007818
1433327515
1933424412
1447690648
1658436268
1441516384
1563226141
1638165853
1542258889
1516151984
1642547596
1839037315
1435238848
1690368835
1848356942
1330606563
1383995718
1855605481
1446156814
1876096266
1610372983
1482584170
1381025565
1383600783
1615087770
1457268471
1908278431
1620123214
1634533470
1600826850
1490732310
1368110012
1687541063
1343761403
1416922663
1367844325
1377559434
1455235354
1575270284
1385469069
1441184941
1522576724
1854238514
1462027283
1398632969
1613417967
1379605146
1637540639
1429510152
1421636691
1493072723
1409851812
1340009571
1570715384
1369804546
1398188630
1627205901
1334921524
1622236260
1402784210
1400630102
1518791327
1559349119
1612253230
1602674287
1387975849
1812459992
1837463218
1918439414
1426164723
1821211956
1822613158
1455406366
1355550295
1638233060
1469223670
1416967396
1417561762
1607669952
1395297142
1722536792
1577528983
1977030397
1376980774
1886550519
1539599369
1539161636
1627804223
1362005404
1596672564
1580744435
1445395608
1969478483
1867593542
1442265904
1894230681
1680429979
1383854602
1406370912
1426526674
1371136001
1569605985
1400516754
1407048768
1813270384
1484681640
1901956809
1429363768
1436322674
1473364545
1668303286
1858818337
1484637176
1645905209
1436601064
1420805819
1923206201
1646644464
1444687261
1578025196
1447598842
1447901747
1403144113
1605180932
1872449868
1346692094
1419576961
1457913805
1610438042
1428701337
1650239653
1397323054
1937763837
1340789922
1482244823
1877710001
1583639940
1892235100
1551249995
1389421678
1882898606
1443893467
1536118620
1420898623
1393823310
1410303641
1834906665
1397397656
1408152570
1369608056
1453855056
1453170413
1596260370
1365583171
1905667489
1431220978
1658284039
1883454570
1400875912
1463085711
1479887505
1681486112
1430268578
1908353678
