Heuristika Failed:  92  Prumer improved:  98.12949995759126  Prumer RAM:  3868.4423076923076
Genetika Failed:  300  Prumer improved:  nan  Prumer RAM:  nan
Krocena genetika Failed:  0  Prumer improved:  98.77887888296114  Prumer RAM:  585.5333333333333
