()
210766675
()
336740566
()
362524849
()
741304727
()
1549173089
()
222109225
()
216729371
()
248667731
()
3261918040
()
1419204601
()
()
194642517
()
()
331444214
()
4289123327
()
1073881667
()
3070536186
()
()
()
204693791
()
226429078
()
398603662
()
1504444687
()
413369807
()
853314698
()
()
1489599488
()
751545054
()
()
1346513727
()
1161666265
()
719858605
()
403897797
()
224099843
()
()
()
285908575
()
1352541061
()
()
()
216960077
()
371941758
()
1222588423
()
410443058
()
3022281357
()
874148749
()
242275095
()
2931478031
()
186794504
()
()
4550577905
()
2902657235
()
()
1370465376
()
()
196972063
()
()
1449688751
()
1459006520
()
()
4419524402
()
1563240629
()
()
()
()
1240078565
()
755066942
()
196395244
()
245521914
()
2711307313
()
()
()
3114634431
()
208850513
()
4259540385
()
343106190
()
457216182
()
()
402084027
()
()
172403098
()
()
()
()
1285360484
()
()
()
()
1434406074
()
()
1024102555
()
1508799295
()
()
381295912
()
197100594
()
()
305704140
()
()
223477757
()
814628136
()
761388005
()
()
()
()
2872547265
()
()
3143236349
()
230828571
()
1311706004
()
180726580
()
()
793262501
()
249396453
()
4035017498
()
3965862473
()
()
()
898060193
()
681150052
()
709923290
()
878474911
()
2862185835
()
()
()
204248714
()
()
413879985
()
()
()
1374871321
()
()
()
()
()
782182869
()
184858345
()
852720990
()
771334940
()
3036254625
()
359091971
()
705456454
()
219634150
()
()
1068164999
()
203632716
()
4445818232
()
3766498998
()
363156886
()
212909563
()
()
()
()
806712241
()
820787268
()
2897587414
()
329601382
()
244082274
()
315520785
()
()
217152799
()
357984835
()
()
()
1231315277
()
1286698909
()
225763099
()
389862953
()
213016834
()
1388361440
()
1370165009
()
3130827176
()
916702455
()
()
1441465441
()
4429524640
()
1412972334
()
173701753
()
()
942042687
()
4579864163
()
1618259161
()
()
1241329928
()
891890765
()
729901276
()
1032767851
()
365805287
()
824416546
()
330506438
()
199275906
()
884403275
()
1100286279
()
1516887015
()
()
328476616
()
()
198665045
()
1297469313
()
193574334
()
2821841937
()
()
209111770
()
()
()
1437679180
()
()
()
184025327
()
1509080134
()
1024159435
()
207052239
()
()
4190204310
()
753770320
()
1498106914
()
297975516
()
()
1542823939
()
197373826
()
4497818157
()
216279143
()
374740566
()
()
191631031
()
212507700
()
()
1103987910
()
1499448785
()
305498565
()
1013420456
()
370260039
()
225672360
()
848427603
()
189691208
()
849646342
()
()
1499599597
()
815524774
()
191337101
()
740236306
()
735302995
()
()
4465098330
()
4591410552
()
3429186423
()
1448346911
()
1181266790
()
391958692
()
3069065286
()
292539309
()
()
()
()
1268629718
()
1044938044
()
()
5217266183
()
4469183072
()
317393525
()
()
1165803783
()
3208109335
()
4681956313
()
3012800052
()
201964073
()
()
419070765
()
()
372782930
()
1283487245
()
()
4614648695
()
3247974645
()
798607914
()
1607228134
()
716587894
()
()
()
()
4354764490
()
1223554769
()
1073607421
()
205775382
()
1320485621
()
()
1139059316
()
1388145990
()
3197376856
()
1165249209
()
()
186222320
()
2977632628
()
187488234
()
()
1145661514
()
2856087861
()
1027781171
()
3089706567
()
1002060698
()
