6104
8192
9083
()
3564
5540
4472
()
3874
5622
4798
()
5355
7075
5966
()
5893
7309
9163
()
6109
7709
12362
()
3413
4613
3933
()
4486
4513
3549
()
3768
4590
3206
()
5215
13744
15029
()
7724
11849
14026
()
5678
8901
8860
()
3247
4498
3564
()
9789
8272
12486
()
5308
5543
5463
()
4939
14768
16791
()
6715
10851
11154
()
6708
12466
15026
()
3212
5522
4494
()
6305
10561
12283
()
3979
5299
3879
()
3268
3875
3622
()
4322
7066
5211
()
7611
10431
10095
()
4734
6366
4809
()
6696
7768
10312
()
6601
7982
7812
()
6458
8800
14613
()
6520
10366
8803
()
6216
10966
9725
()
6169
10479
10299
()
7620
7779
12579
()
5061
9248
7744
()
4002
6414
6297
()
3884
5466
3716
()
4617
6847
5986
()
4556
6425
5622
()
4875
6658
4652
()
5046
10136
12499
()
5793
6027
5198
()
7976
11449
12229
()
3475
4525
3428
()
4963
7203
6536
()
5576
7136
12788
()
4526
7291
5465
()
5037
11301
14918
()
5762
10135
8645
()
3897
4882
4158
()
13580
16817
()
3913
4497
3035
()
5423
8985
11183
()
18392
()
4573
15036
16501
()
8733
8819
14703
()
8861
11708
12204
()
6014
8037
10487
()
3105
5295
4223
()
5242
8127
8424
()
8693
9524
13263
()
5097
10233
12425
()
3844
6916
4713
()
4621
13923
20156
()
3706
9366
13730
()
7717
7685
10348
()
8076
10261
14202
()
9510
10370
()
7061
9433
11853
()
7100
8433
8721
()
4062
4152
3787
()
4074
4079
3723
()
6138
13572
16049
()
6220
6556
9649
()
6409
9439
13853
()
15293
17680
()
4677
4493
3339
()
5208
15262
20015
()
5008
6746
5686
()
4641
5528
5733
()
7471
8550
11649
()
4639
4878
6366
()
5310
5452
5935
()
3533
4553
3361
()
6071
8708
11590
()
5311
6869
6125
()
8230
11629
12708
()
4981
9634
9656
()
7312
9719
10324
()
6135
10195
12447
()
5025
6686
5312
()
8062
9602
11825
()
6129
7372
5795
()
7061
9968
11470
()
6580
9655
12446
()
5280
10597
11482
()
4782
7416
5012
()
3301
4738
3871
()
5989
8438
8978
()
4751
6359
5860
()
5729
8730
9483
()
3689
4858
3673
()
5961
9526
9939
()
6269
7964
8021
()
4403
5421
4987
()
4819
5230
4910
()
11608
13484
()
8039
12328
17597
()
7240
9671
11924
()
5721
13072
17289
()
3411
5319
3817
()
5243
9402
13236
()
4187
4611
3989
()
7995
9148
11471
()
6580
9779
9172
()
4020
5016
4176
()
9651
15076
16793
()
3675
14993
19002
()
5884
9984
9942
()
7003
8534
12195
()
6394
8713
10626
()
6000
8690
9173
()
7522
8076
9006
()
7570
10281
11290
()
8712
13621
15923
()
6965
11208
11590
()
6160
9477
10855
()
3720
4445
2780
()
5797
6221
5121
()
3940
7110
5840
()
6426
10609
12048
()
4515
6261
5851
()
5128
8341
12953
()
5161
9183
12807
()
6539
8831
13001
()
4844
6705
5723
()
4699
4622
3905
()
7914
8351
8651
()
4391
4672
3555
()
5513
8234
8627
()
6251
7765
9029
()
5502
14416
15847
()
4862
7224
5658
()
6226
7945
8445
()
4413
4827
4235
()
4668
5397
6148
()
7376
9483
11664
()
3836
5478
4285
()
3033
14371
15044
()
19777
()
4794
6827
4889
()
3797
4296
3635
()
7277
8846
11710
()
6675
11487
12311
()
6314
7552
8534
()
5533
9122
10362
()
6043
6659
9526
()
7051
11836
17718
()
4539
7197
5514
()
3179
4989
3655
()
5209
5875
5281
()
6533
8156
11871
()
3484
5055
3944
()
4490
4847
5661
()
6125
7906
9581
()
7323
10423
12870
()
10026
()
7436
9040
13757
()
3460
4999
3497
()
4145
6530
5044
()
3195
4887
3508
()
6614
12325
13573
()
5244
10519
12986
()
7014
12627
16864
()
6535
8932
10053
()
7080
7959
9531
()
7694
9395
11996
()
12759
17119
()
5432
9145
11475
()
4568
4853
3399
()
6446
9700
10200
()
6290
8320
11730
()
5742
16122
21967
()
7201
10230
15612
()
6976
9129
10670
()
7179
10724
12111
()
5559
6748
10288
()
6201
8061
9662
()
6254
8267
10800
()
5399
5932
6135
()
7250
9236
9321
()
5489
6992
6373
()
2946
4618
4245
()
6205
6895
9599
()
6278
7173
10555
()
8356
13037
14072
()
5841
8572
8983
()
5231
5835
5039
()
6493
9717
13170
()
3451
4067
3398
()
6162
9909
13222
()
3384
4881
3743
()
6353
12443
14810
()
6008
7410
10149
()
4113
4753
3246
()
8495
8895
12877
()
6150
7497
10188
()
6628
9843
12782
()
3857
5876
6079
()
7241
9369
11614
()
3986
4533
3685
()
5538
11586
10690
()
9172
12602
()
3676
4993
4131
()
5103
5996
6274
()
7209
15478
19356
()
7047
9065
8479
()
6013
9954
9665
()
3804
5943
3975
()
4337
10235
13221
()
4277
8547
12253
()
4243
4290
3333
()
5350
15567
19203
()
3511
4787
3799
()
5540
5476
5400
()
6920
9645
10206
()
3595
5171
4435
()
4499
5462
4444
()
4740
5185
4037
()
8012
9142
11821
()
7409
11306
11036
()
6357
5184
5406
()
7672
11725
12085
()
4499
7222
5613
()
4018
5387
3911
()
5539
9030
9437
()
3719
4266
3385
()
5546
7909
7247
()
6167
7386
9104
()
6433
10099
11641
()
6582
9170
9320
()
4733
4973
4211
()
6453
11376
9679
()
4931
7373
9050
()
4004
7661
5538
()
6285
14704
19398
()
4642
12696
17826
()
12179
15247
()
5556
11102
12034
()
6658
9863
11761
()
3854
6936
4698
()
7168
14003
16592
()
5318
4962
4254
()
7267
9076
11351
()
6394
8891
10695
()
5917
5587
6183
()
7844
8648
12304
()
6898
10122
11372
()
7207
8465
13493
()
5443
15501
19822
()
4087
15884
20335
()
5058
6528
5355
()
5059
5800
5788
()
6395
8182
11431
()
5800
13067
15761
()
19146
()
5371
15163
15442
()
4373
5182
4631
()
4101
7588
5846
()
5155
5931
6739
()
7229
9426
12148
()
5309
5517
5705
()
4921
12287
12183
()
7553
11603
11947
()
5762
13844
17796
()
6378
14090
17899
()
6762
7404
8883
()
5760
9894
13682
()
5971
8912
8957
()
6531
9814
9786
()
6876
8172
9351
()
7453
9515
12228
()
2209
12568
17741
()
5556
9260
12222
()
4265
9142
11092
()
4246
4780
4040
()
5218
10921
12226
()
5253
10277
13702
()
6318
7970
10958
()
6468
10306
13006
()
5194
13196
17808
()
6263
10088
10831
()
7233
7753
9391
()
4290
4667
3763
()
6918
11375
13918
()
4420
5447
4420
()
3293
4559
3097
()
6460
8499
9003
()
4486
11809
13997
()
6738
7839
11594
()
4941
11972
13784
()
7008
10900
()
